<?xml version="1.0" encoding="iso-8859-1"?>
<!-- Generator: Adobe Illustrator 19.0.0, SVG Export Plug-In . SVG Version: 6.00 Build 0)  -->
<svg version="1.1" id="Layer_1" xmlns="http://www.w3.org/2000/svg" xmlns:xlink="http://www.w3.org/1999/xlink" x="0px"
     y="0px"
     viewBox="0 0 512 512" style="enable-background:new 0 0 512 512;" xml:space="preserve">
<rect style="fill:#FF4B55;" width="512" height="512"/>
    <rect style="fill:#73AF00;" width="185.38" height="512"/>
    <circle style="fill:#FFE15A;" cx="185.45" cy="256" r="112.38"/>
    <path style="fill:#FF4B55;" d="M222.941,218.508v49.99c0,20.673-16.819,37.492-37.492,37.492s-37.492-16.819-37.492-37.492v-49.99
	L222.941,218.508 M235.438,193.513h-99.98c-6.902,0-12.497,5.595-12.497,12.497v62.487c0,34.511,27.977,62.487,62.487,62.487
	s62.487-27.977,62.487-62.487V206.01C247.935,199.108,242.34,193.513,235.438,193.513L235.438,193.513z"/>
    <path style="fill:#F5F5F5;" d="M211.931,229.517v35.31c0,14.603-11.88,26.483-26.483,26.483s-26.483-11.88-26.483-26.483v-35.31
	H211.931"/>
    <g>
	<circle style="fill:#FFE15A;" cx="135.36" cy="206.01" r="6.249"/>
        <circle style="fill:#FFE15A;" cx="235.34" cy="206.01" r="6.249"/>
        <circle style="fill:#FFE15A;" cx="135.36" cy="256" r="6.249"/>
        <circle style="fill:#FFE15A;" cx="235.34" cy="256" r="6.249"/>
        <circle style="fill:#FFE15A;" cx="185.35" cy="206.01" r="6.249"/>
        <circle style="fill:#FFE15A;" cx="222.87" cy="302.08" r="6.249"/>
        <circle style="fill:#FFE15A;" cx="148.57" cy="302.08" r="6.249"/>
</g>
    <g>
	<path style="fill:#41479B;" d="M193.52,252.832v10.762c0,4.451-3.621,8.071-8.071,8.071c-4.451,0-8.071-3.621-8.071-8.071v-10.762
		H193.52"/>
        <path style="fill:#41479B;" d="M193.52,227.317v10.762c0,4.451-3.621,8.071-8.071,8.071c-4.451,0-8.071-3.621-8.071-8.071v-10.762
		H193.52"/>
        <path style="fill:#41479B;" d="M193.52,278.608v10.762c0,4.451-3.621,8.071-8.071,8.071c-4.451,0-8.071-3.621-8.071-8.071v-10.762
		H193.52"/>
        <path style="fill:#41479B;" d="M215.26,252.832v10.762c0,4.451-3.621,8.071-8.071,8.071c-4.451,0-8.071-3.621-8.071-8.071v-10.762
		H215.26"/>
        <path style="fill:#41479B;" d="M171.779,252.832v10.762c0,4.451-3.621,8.071-8.071,8.071c-4.451,0-8.071-3.621-8.071-8.071v-10.762
		H171.779"/>
</g>
    <g>
</g>
    <g>
</g>
    <g>
</g>
    <g>
</g>
    <g>
</g>
    <g>
</g>
    <g>
</g>
    <g>
</g>
    <g>
</g>
    <g>
</g>
    <g>
</g>
    <g>
</g>
    <g>
</g>
    <g>
</g>
    <g>
</g>
</svg>
